291188 931733 525
694459 638630 442
749751 238760 509
886106 762142 525
517246 642611 509
203388 491378 449
369474 521162 470
899808 515894 525
181906 384967 443
89477 457040 449
5247 595890 470
702862 958156 525
466119 22392 449
723141 665357 504
176213 703604 509
515031 981604 525
635338 723694 504
134439 899293 525
962453 20546 525
175640 479699 449
177361 379027 443
485281 546834 470
414393 899294 525
576933 596298 434
798465 666409 504
567543 803711 509
776504 270405 509
761868 242623 509
807000 999213 525
907979 497417 525
702817 423010 509
479022 338155 449
660909 127665 509
751652 623362 509
662414 927291 525
617266 353980 470
820522 102547 509
900813 234916 525
516045 991950 525
345418 314511 384
172565 427165 449
118222 949068 525
697569 394294 509
705895 504570 509
393507 613874 470
1987 96325 351
551088 995212 525
948683 211997 525
637082 700336 442
349564 299496 441
141832 481034 449
653475 962354 525
97785 68494 351
711474 613830 509
574648 571096 372
928340 261417 525
998261 560766 525
724689 210035 509
955060 430584 525
228809 348567 443
558662 745000 509
959095 109751 525
740212 907779 525
835951 891498 525
122320 699719 509
705199 778355 468
180753 872878 525
254914 278538 407
455576 966387 525
406572 30225 443
51689 334912 443
805845 49950 509
409882 530535 470
259984 364942 441
961118 488793 525
227714 519781 470
747997 701013 504
143736 2414 375
122997 493891 449
893912 245316 525
193611 599111 470
537876 888567 525
471989 792789 509
167105 441770 449
759177 87881 509
471994 325070 449
936996 277839 525
375019 346879 410
322578 149207 443
711820 283697 509
152204 453738 449
317682 900200 525
154752 975621 525
902614 277748 525
469512 796526 509
37269 663122 509
909841 575144 525
65895 896034 525
367933 232999 441
337804 641314 509
320880 324002 353
966383 257876 525
116046 855606 525
118959 438623 449
4814 344984 443
236524 671221 509
798721 68410 509
571422 467677 470
44031 988240 525
259630 513543 470
298971 296898 371
690869 208812 509
386246 756763 509
619050 268383 470
503967 471059 426
909697 339051 525
309265 390285 441
111131 939514 525
760096 230090 509
378138 279114 441
575073 128866 470
950334 887998 507
197276 35961 383
355676 755510 509
24201 615305 470
269053 323171 407
426407 474127 444
46187 812652 509
230890 179442 443
81035 249061 443
650500 504936 509
588111 473969 470
409426 213447 443
413484 169522 449
443536 305826 449
962839 532813 525
434691 913173 525
420811 146171 449
949134 290691 525
901681 487539 525
905995 684938 525
810710 846606 525
159065 371101 443
659258 389955 509
550542 254498 470
153220 715246 509
273638 741331 509
189216 683063 509
954777 116904 525
366789 912517 525
422729 329628 449
445330 857419 525
757006 380345 509
517795 220345 470
671036 419476 509
707883 91236 509
104414 32798 351
452047 263479 449
403899 625509 470
167638 468645 449
880006 320857 525
698096 667849 442
576392 401516 470
865116 45374 525
518419 231906 470
957890 941147 414
75738 917424 525
312771 346948 441
811974 830565 450
567292 997214 525
764245 789380 468
602654 868659 525
822177 54701 509
646342 740280 504
680210 813979 504
208926 74421 383
649040 907021 525
742269 739637 393
308537 607386 470
785010 341160 509
353496 257106 441
282307 943437 525
688734 109282 509
290386 500708 449
939847 371882 525
497922 218297 449
161262 614781 470
86956 983439 525
669481 247502 509
723719 349691 509
575685 446849 470
424112 224726 449
868074 680585 525
964362 690815 525
802175 263577 509
31975 155671 375
520682 828485 509
613313 723621 509
937767 903698 476
224329 391819 443
789784 236456 509
610115 951046 525
851236 211276 525
448690 520717 470
458777 686613 509
384613 34463 443
133463 322929 443
773392 1537 509
517718 251959 470
692352 319894 509
515535 238531 470
475564 550422 470
67017 88877 351
274043 4784 443
506779 12576 449
910806 296564 525
249031 520921 470
761814 614471 509
246401 210504 443
649393 705178 504
