1 10 20
100 200 125
201 210 89
900 1000 174
1 1 1
25 54 113
4 7 17
6 8 17
43 56 113
16 71 113
29 74 116
19 85 116
4 30 112
12 34 112
24 60 113
56 75 116
39 58 113
105 530 144
579 831 171
486 837 171
567 789 171
256 684 145
345 367 126
135 689 145
189 897 179
4738 8479 262
1289 7489 262
2374 8436 262
3758 7584 262
2343 7834 262
2357 5867 238
13239 47382 324
12367 86374 351
57368 87648 351
23647 94785 351
37578 78590 351
23647 84683 351
23564 45784 324
78645 89795 338
42135 95541 351
324 478 144
326 778 171
4683 4783 197
1237 4675 238
1463 4748 238
374 8987 262
1246 6473 262
2387 7384 262
1264 6834 262
2756 6483 262
5683 6728 262
1264 6843 262
23 67 113
472 647 142
26 638 144
672 697 127
472 557 142
4577 6883 262
12 67 113
278 674 145
287 688 145
456 664 145
428 848 171
723 1634 182
438 657 145
538 674 145
829 1342 182
2384 6846 262
1683 9746 262
374 747 171
2846 6746 262
236 8684 262
246 784 171
972 1637 182
6855 7354 257
8647 9648 260
127 582 144
368 583 142
947 6574 262
748 2745 209
254 645 144
93747 100000 328
4672 6744 262
7486 8746 252
246 564 144
3847 5745 236
1874 2784 209
7643 7846 221
48236 58363 340
46742 67453 340
19337 57832 340
1000 7423 262
4826 7384 262
23 78 116
487 743 171
13 743 171
74 126 119
78 98 119
14 786 171
32 74 116
19 748 171
468 684 145
647 762 171
2368 6394 262
6283 7637 257
21 64 113
8376 9374 260
103 483 144
324 478 144
326 778 171
4683 4783 197
1237 4675 238
1463 4748 238
374 8987 262
1246 6473 262
2387 7384 262
1264 6834 262
2756 6483 262
5683 6728 262
1264 6843 262
23 67 113
472 647 142
26 638 144
672 697 127
472 557 142
4577 6883 262
12 67 113
278 674 145
287 688 145
456 664 145
428 848 171
723 1634 182
438 657 145
538 674 145
829 1342 182
2384 6846 262
1683 9746 262
374 747 171
2846 6746 262
236 8684 262
246 784 171
972 1637 182
6855 7354 257
8647 9648 260
127 582 144
368 583 142
947 6574 262
748 2745 209
254 645 144
93747 100000 328
4672 6744 262
7486 8746 252
246 564 144
3847 5745 236
1874 2784 209
7643 7846 221
48236 58363 340
46742 67453 340
19337 57832 340
1000 7423 262
4826 7384 262
23 78 116
487 743 171
13 743 171
74 126 119
78 98 119
14 786 171
32 74 116
19 748 171
468 684 145
647 762 171
2368 6394 262
6283 7637 257
21 64 113
8376 9374 260
103 483 144
654 684 145
325 6473 262
456 674 145
467 784 171
654 674 145
674 864 171
874 1983 182
589 678 145
7846 7945 190
274 758 171
574 748 171
758 3000 217
574 748 171
27 478 144
478 674 145
274 580 144
578 859 171
573 745 171
478 564 142
374 574 142
574 856 171
130 465 144
37 56 113
4758 5674 236
36 67 113
567 674 145
678 679 65
564 674 145
47 674 145
8 57 113
38 59 113
100 400 144
857 894 179
947 1000 143
694 857 171
574 857 171
