1 1000 179
1000 2000 182
2000 3000 217
3000 4000 238
4000 5000 215
5000 6000 236
6000 7000 262
7000 8000 252
8000 9000 247
9000 10000 260
10000 11000 268
11000 12000 250
12000 13000 263
13000 14000 276
14000 15000 271
15000 16000 271
16000 17000 266
17000 18000 279
18000 19000 261
19000 20000 274
20000 21000 256
21000 22000 269
22000 23000 269
23000 24000 282
24000 25000 264
25000 26000 264
26000 27000 308
27000 28000 259
28000 29000 259
29000 30000 272
30000 31000 272
31000 32000 285
32000 33000 267
33000 34000 267
34000 35000 311
35000 36000 324
36000 37000 249
37000 38000 306
38000 39000 244
39000 40000 306
40000 41000 288
41000 42000 257
42000 43000 288
43000 44000 270
44000 45000 270
45000 46000 314
46000 47000 283
47000 48000 314
48000 49000 296
49000 50000 296
50000 51000 278
51000 52000 309
52000 53000 340
53000 54000 322
54000 55000 260
55000 56000 260
56000 57000 322
57000 58000 304
58000 59000 273
59000 60000 304
60000 61000 335
61000 62000 317
62000 63000 286
63000 64000 330
64000 65000 299
65000 66000 268
66000 67000 268
67000 68000 312
68000 69000 312
69000 70000 299
70000 71000 312
71000 72000 325
72000 73000 263
73000 74000 294
74000 75000 325
75000 76000 307
76000 77000 307
77000 78000 351
78000 79000 338
79000 80000 307
80000 81000 320
81000 82000 320
82000 83000 320
83000 84000 289
84000 85000 320
85000 86000 302
86000 87000 302
87000 88000 333
88000 89000 333
89000 90000 315
90000 91000 315
91000 92000 333
92000 93000 315
93000 94000 284
94000 95000 315
95000 96000 328
96000 97000 297
97000 98000 297
98000 99000 284
99000 100000 328
100000 101000 341
101000 102000 310
102000 103000 310
103000 104000 248
104000 105000 310
105000 106000 341
106000 107000 354
107000 108000 292
108000 109000 279
109000 110000 310
110000 111000 292
111000 112000 323
112000 113000 323
113000 114000 292
114000 115000 305
115000 116000 349
116000 117000 305
117000 118000 305
118000 119000 336
119000 120000 305
120000 121000 318
121000 122000 336
122000 123000 318
123000 124000 331
124000 125000 287
125000 126000 318
126000 127000 331
127000 128000 287
128000 129000 331
129000 130000 344
130000 131000 331
131000 132000 300
132000 133000 331
133000 134000 313
134000 135000 300
135000 136000 344
136000 137000 313
137000 138000 331
138000 139000 313
139000 140000 313
140000 141000 344
141000 142000 326
142000 143000 375
143000 144000 282
144000 145000 326
145000 146000 295
146000 147000 357
147000 148000 295
148000 149000 326
149000 150000 326
150000 151000 370
151000 152000 295
152000 153000 308
153000 154000 308
154000 155000 352
155000 156000 308
156000 157000 383
157000 158000 339
158000 159000 321
159000 160000 352
160000 161000 370
161000 162000 290
162000 163000 339
163000 164000 321
164000 165000 334
165000 166000 321
166000 167000 352
167000 168000 321
168000 169000 321
169000 170000 334
170000 171000 290
171000 172000 334
172000 173000 303
173000 174000 347
174000 175000 334
175000 176000 272
176000 177000 334
177000 178000 334
178000 179000 347
179000 180000 303
180000 181000 365
181000 182000 316
182000 183000 334
183000 184000 254
184000 185000 316
185000 186000 329
186000 187000 347
187000 188000 329
188000 189000 316
189000 190000 360
190000 191000 329
191000 192000 329
192000 193000 347
193000 194000 329
194000 195000 342
195000 196000 360
196000 197000 298
197000 198000 285
198000 199000 329
199000 200000 329
200000 201000 342
201000 202000 311
