108866 568030 470
470001 388646 449
873280 665461 525
846652 429251 525
923467 967523 507
209695 357616 443
391999 484238 449
140969 405819 443
586295 129844 470
395543 622069 470
930083 957765 507
116714 989753 525
977494 185872 525
433654 421504 418
391383 924373 525
625142 281231 470
816719 107112 509
152567 874943 525
951955 736931 525
351507 768277 509
563479 943390 525
167543 242794 443
631309 512541 509
695140 562813 509
898035 242583 525
698391 250542 509
154132 921912 525
301240 188969 443
403412 856428 525
85781 506229 449
97449 902340 525
202479 847021 525
56345 916794 525
865002 37292 525
562106 493625 470
557969 399969 470
594967 607559 403
161568 922615 525
78901 813542 509
944952 503200 525
825047 562482 509
345895 701689 509
315087 990455 525
51503 839190 525
531985 909555 525
54667 338839 443
491541 958841 525
979365 532573 525
749100 457525 509
372210 114290 443
456231 540211 470
506170 967829 525
311664 873993 525
80673 799981 509
332017 373452 441
595154 546956 434
954224 622972 525
846263 883520 432
135434 589856 470
455681 909472 525
321011 29056 443
751542 615532 509
478599 785444 509
166948 36110 383
320160 515582 470
330031 757143 509
459777 337253 449
68315 936679 525
504662 189356 449
852544 190346 525
199786 298226 443
13112 782886 509
600659 111708 470
377701 471649 449
852914 491552 525
695127 372918 509
553651 836875 509
294739 949417 525
104308 664558 509
117846 464517 449
653372 652820 336
419340 161128 449
92462 750491 509
55220 426719 449
352316 214111 443
899285 596933 525
898341 625333 525
980586 551101 525
388658 586555 470
738369 716373 424
296413 310204 371
366390 51227 443
238542 518026 470
700426 440226 509
640028 264560 509
737477 388431 509
146035 41021 375
229253 273830 443
272916 180019 443
668308 307454 509
541285 313886 470
912389 235785 525
350900 250650 441
190630 550186 470
498146 405263 449
933487 736241 525
349302 633858 509
276930 898166 525
499370 495996 351
342794 5863 443
428100 779477 509
614692 585377 403
639772 777150 504
242627 352946 441
610719 753874 509
352045 17708 443
345389 395354 441
108658 837620 509
615886 812266 509
283217 813530 509
98379 953027 525
648677 965263 525
633990 614525 509
975891 92413 525
231839 940629 525
197786 683819 509
346067 362486 410
662256 932529 525
315555 847298 525
831996 576515 509
418573 733923 509
250282 234097 381
852197 723154 525
705499 353144 509
832654 391964 509
847832 752109 525
340648 18109 443
863993 526646 525
437856 879890 525
859220 342178 525
366831 621439 470
153226 292794 443
452209 24685 449
471844 251622 449
775403 923405 525
919683 359701 525
538479 642343 509
883323 387480 525
145630 114455 375
445000 484215 444
813130 183260 509
201902 968319 525
122162 507493 449
813702 839308 525
368082 28311 443
850987 974083 507
643180 150211 509
748075 201382 509
727114 105661 509
994592 335543 525
14279 272970 443
559873 322269 470
475858 294749 449
783231 864556 525
654143 85953 509
600329 713244 509
193680 644301 509
194330 151691 383
523500 849321 525
573313 151760 470
463496 316657 449
64933 583321 470
240321 115519 443
775182 211891 509
849000 264348 525
739071 215422 509
462877 985453 525
624104 932789 525
913184 160670 525
963245 188656 525
276431 238418 407
431660 384998 449
985714 846084 507
90036 8636 351
449951 249793 449
236100 177646 443
230766 352002 441
226777 21604 386
748904 247994 509
574395 178281 470
159255 796119 509
581554 193101 470
751480 134893 509
708 257511 443
850653 965658 507
419386 842143 525
377609 168775 443
89015 159037 383
689133 763023 504
197035 748168 509
699067 347367 509
822559 461079 509
984537 980308 427
840168 929675 476
950661 171553 525
694871 830042 504
878088 498883 525
957109 87484 525
415524 43557 449
935009 329472 525
566285 948873 525
660256 684356 442
255817 913424 525
21948 871100 525
113712 257102 443
503369 886759 525
201717 420071 449
309916 717055 509
253624 444698 449
283287 652909 509
245261 509857 449
589438 826390 509
899581 294803 525
954675 236138 525
397299 737906 509
937664 382017 525
713461 811164 468
464010 950976 525
864701 956427 507
681505 492911 509
819598 43812 509
344512 717710 509
407133 305537 441
800302 9078 509
669844 789137 504
911414 768323 525
123719 831447 509
776405 135852 509
599974 820715 509
691330 246296 509
575064 32533 470
149793 563868 470
369925 505522 449
397196 544748 470
521441 317496 470
182005 759333 509
979999 382130 525
589446 396539 470
327261 764174 509
811333 407951 509
