383 886 179
777 6915 262
793 8335 262
386 492 142
649 1421 182
362 27 144
690 59 145
763 3926 238
540 3426 217
172 5736 238
211 5368 238
567 6429 262
782 1530 182
862 5123 238
67 3135 217
929 9802 262
22 3058 217
69 8167 262
393 8456 262
11 8042 262
229 7373 262
421 4919 238
784 8537 262
198 4324 238
315 4370 238
413 3526 217
91 8980 262
956 1873 182
862 9170 262
996 7281 262
305 925 179
84 6327 262
336 6505 262
846 1729 182
313 5857 238
124 3895 238
582 545 137
814 3367 217
434 364 134
43 3750 238
87 6808 262
276 7178 262
788 3584 217
403 2651 209
754 2399 183
932 5060 238
676 3368 217
739 12 171
226 8586 262
94 7539 262
795 570 171
434 378 134
467 6601 262
97 2902 209
317 492 144
652 756 171
301 280 118
286 9441 262
865 9689 262
444 6619 262
440 4729 238
31 8117 262
97 5771 238
481 675 145
709 8927 262
567 7856 262
497 2353 183
586 6965 262
306 4683 238
219 8624 262
528 2871 209
732 8829 262
503 19 144
270 3368 217
708 6715 262
340 8149 262
796 723 153
618 2245 183
846 3451 217
921 3555 217
379 7488 262
764 8228 262
841 2350 183
193 1500 182
34 7764 262
124 4914 238
987 5856 238
743 6491 262
227 8365 262
859 1936 182
432 2551 209
437 9228 262
275 5407 238
474 6121 238
858 4395 238
29 1237 182
235 3793 238
818 4428 238
143 1011 179
928 9529 262
776 2404 183
443 5763 238
613 4538 238
606 6840 262
904 4818 238
128 688 145
369 7917 262
917 6996 262
324 7743 262
470 2183 182
490 5499 238
772 6725 262
644 5590 238
505 8139 262
954 9786 262
669 8082 262
542 8464 262
197 9507 262
355 8804 262
348 8611 262
622 7828 262
299 7343 262
746 5568 238
340 5422 238
311 3810 238
605 1801 182
661 3730 238
878 1305 182
320 8736 262
444 8626 262
522 3465 217
708 3416 217
282 3258 217
924 7637 262
62 5624 238
600 2036 182
452 1899 182
379 5550 238
468 71 144
973 7131 262
881 4930 238
933 5894 238
660 163 145
199 7981 262
899 2996 217
959 3773 238
813 9668 262
190 1095 179
926 6466 262
84 1340 182
90 7684 262
376 5542 238
936 9107 262
445 9756 262
179 8418 262
887 9412 262
348 2172 182
659 2009 182
336 5210 238
342 7587 262
206 9301 262
713 7372 262
321 1255 182
819 4599 238
721 9904 262
939 9811 262
940 5667 238
705 6228 262
127 9150 262
984 6658 262
920 9224 262
422 7269 262
396 4081 238
630 84 144
292 1972 182
672 3850 238
625 5385 238
222 9299 262
640 6042 238
898 713 179
298 6190 262
524 2590 209
209 8581 262
819 9336 262
732 1155 179
994 8004 262
379 4769 238
273 1776 182
850 7255 262
860 8142 262
579 5884 238
993 3205 217
621 9567 262
504 613 137
961 2754 209
326 4259 238
944 8202 262
202 3506 217
784 2021 182
842 868 148
