816431 83465 509
282365 685664 509
944607 698937 525
435949 959334 525
389178 365224 423
905927 549398 525
884565 613486 525
692301 190278 509
696346 912563 525
795069 147553 509
90101 528036 470
948653 421222 525
269092 194323 443
418631 745707 509
30058 442585 449
205004 386587 443
841839 741662 525
307773 343862 384
970015 357134 525
461356 617531 470
414586 23422 449
196914 207596 373
175552 271684 443
717708 848475 525
987333 570761 525
820477 805750 450
115509 186233 383
239640 79420 443
560080 852521 525
709618 403905 509
55466 100782 351
495992 44785 449
132826 399860 443
333180 2059 443
261002 749752 509
752343 275729 509
439994 681619 509
222322 600214 470
200959 664302 509
8695 506673 449
12741 228958 386
111464 463948 449
140916 578851 470
265047 472038 449
585487 510718 470
735026 62102 509
346453 493400 449
521399 702982 509
158234 58057 383
624167 660257 509
286410 407950 441
777751 933926 525
730981 339817 509
247730 258411 363
226367 322499 443
34103 164870 383
303728 621576 470
136871 122145 344
431904 237048 449
290455 130235 443
610895 168915 470
760434 720299 424
371861 151598 443
546807 361179 470
183642 450675 449
649575 318454 509
311818 66147 443
68738 592124 470
756389 998014 525
538717 916609 525
517354 980697 525
325090 557488 470
329135 279774 389
162279 514763 470
457311 895246 525
581442 788433 509
901882 827113 525
51421 378497 443
397268 809795 509
837794 19377 509
474629 108873 449
674983 976651 525
602805 724345 509
297408 453583 449
250638 859474 525
767387 778068 468
746024 842156 525
553760 418948 470
557805 141234 470
656529 376223 509
685981 756706 504
810112 649892 504
130552 688573 509
280091 974377 525
891518 671255 525
66464 880836 525
703299 970332 525
169232 838111 525
831475 585804 509
322816 846201 525
276046 517671 470
792795 436266 509
771432 500354 509
579168 77146 470
848792 799431 525
12653 42626 324
99601 6748 351
94847 70679 351
16542 77628 351
42094 74275 340
94743 1057 351
22711 4715 279
11554 51235 324
95346 42302 351
57313 63397 335
35543 16657 311
74408 16628 340
87302 52030 351
21343 41669 324
39643 37610 275
61794 53738 335
28167 22843 308
78678 10336 351
61621 37739 340
13213 94061 351
73459 38189 340
28978 20423 308
98402 76273 351
980 70652 340
74007 95577 351
29713 49517 324
67222 51503 340
80222 68131 351
25955 56581 340
46166 51770 314
55630 50782 340
38878 72680 340
20756 96834 351
1432 7894 262
71486 527 340
47701 22042 324
95180 56033 351
26421 75164 340
92966 16216 351
10254 55524 340
81306 87940 333
9852 37419 324
18555 52389 324
12916 63996 340
56526 10375 340
48259 55059 340
17051 52651 340
74874 39888 340
93545 55224 351
95988 15047 351
77567 99667 338
98132 27196 351
10382 18434 279
15197 80907 351
59526 65167 335
17503 71475 340
20367 10014 279
25856 42729 324
42665 59940 340
50614 69845 340
82141 4037 351
55749 67162 335
77032 83841 338
47906 20988 324
49660 88639 351
90471 47419 351
32989 75785 340
42629 75148 340
22191 16015 279
23431 53276 340
51209 63752 340
849 84130 351
94316 52425 351
5849 81071 351
92679 14781 351
71443 51305 340
5925 28193 308
96758 3703 351
88698 84977 333
36099 81605 351
92224 87703 333
13005 20636 279
90876 69506 351
59320 31522 340
33732 39401 324
79247 7896 351
21139 52595 340
38420 59114 340
6277 5799 262
77956 68070 351
21721 57537 340
53526 74001 335
31003 73467 340
80308 5173 351
96685 17578 351
87363 24364 351
43041 91716 351
50323 4355 324
21454 26327 282
61944 48129 340
79218 10772 351
