1 10 20
100 200 125
201 210 89
900 1000 174
1 1 1
1 3 8
1 100 119
1000 3000 217
23 79 116
69 213 125
5000 6000 236
70000 71000 312
999995 999999 259
200000 300001 443
500000 750000 509
387 6050 238
2621 7568 262
1127 5961 238
9480 7303 260
1547 5499 238
6758 4390 262
4147 1443 238
3612 8485 262
4563 9378 262
4106 5433 215
4287 4985 215
9249 9390 260
9422 1918 262
6348 309 262
4070 9786 262
6824 5613 262
8952 582 262
2247 6509 262
5398 2448 238
1381 9824 262
5663 6766 262
921 2770 209
235 2487 209
8576 2226 262
6422 2108 262
5775 7060 262
5631 7032 262
7624 180 262
2547 7798 262
1847 5653 238
585 9036 262
371 2868 209
5176 8724 262
2408 7410 262
2504 6353 262
2458 3383 217
9225 4657 262
5952 7934 262
5636 3208 238
1397 7629 262
2009 1203 180
932 3915 238
846 6305 262
2311 4800 238
323 6511 262
6357 5706 262
6337 1480 262
612 5327 238
57 6759 262
9504 3210 262
4694 8607 262
6517 9054 257
6709 2881 262
627 4572 238
4936 7024 262
6367 3784 262
8553 1682 262
7065 8467 252
6698 1856 262
1062 5779 238
8363 7142 252
9377 256 262
6952 8632 252
2719 8423 262
3286 5477 238
9931 6465 260
5536 8135 262
6619 3489 262
8849 5773 262
6472 562 262
6202 3385 262
8130 2554 262
5868 8336 262
5021 6479 262
3209 1440 217
7425 3648 262
7513 9180 252
8626 8853 216
7280 9039 252
9357 4607 262
1654 8460 262
9725 8191 260
7339 5450 262
7781 4233 262
3374 416 217
9757 5352 262
8549 8137 234
4351 7497 262
4401 2823 238
716 1801 182
3363 279 217
6176 6360 200
5776 8361 262
5555 1608 238
3073 460 217
4299 790 238
5117 8763 262
8471 4671 262
7885 9340 260
5362 316 238
5390 8976 262
2653 6080 238
5503 5286 192
9939 936 262
128 7922 262
2218 7129 262
5461 8598 262
9447 8575 260
6736 8450 257
1729 2972 217
545 3766 238
4379 2415 238
43 3501 217
2214 7907 262
6203 4224 262
2369 6658 262
8128 5367 262
8957 7403 252
5500 2383 238
2985 6819 262
4727 9734 262
5158 2266 238
2300 5752 238
4183 4104 189
9707 168 262
3462 2431 217
1543 1177 177
5584 5694 205
799 1354 182
6603 3605 262
3884 6839 262
7115 9922 260
1813 7056 262
2856 1907 209
7740 8627 252
7208 6214 257
2048 5538 238
3854 3957 189
6116 4124 236
3856 3568 238
7343 1135 262
5561 6789 262
8691 1863 262
1461 2347 183
8332 2092 262
3922 3300 238
5919 9218 262
9724 1580 262
6332 5929 262
5202 2457 238
6038 2392 238
8574 3556 262
7681 3611 262
1631 1221 177
1225 2141 180
9474 6120 262
1278 9510 262
1372 9747 262
5434 6178 262
5547 9770 262
680 547 145
6825 4577 262
2064 8381 262
9662 4628 262
8211 8597 234
1571 8774 262
8533 8335 234
881 6920 262
9843 7383 260
2737 6018 238
4898 3879 215
3335 5012 238
6826 3738 262
1728 2636 209
5115 3956 215
9165 6568 257
7414 9200 252
4751 689 238
8377 1499 262
8051 2851 262
847 5657 238
6980 5265 262
5912 6022 187
5924 5 238
5559 4076 215
5956 2476 238
3567 8795 262
8046 9780 260
2750 7118 262
7987 8754 234
5147 4991 179
8596 1957 262
7854 7585 221
9736 5867 262
78 9075 262
4849 6750 262
4815 3563 238
6964 9391 260
3874 2514 238
7272 5689 262
1875 7064 262
3530 7864 262
6638 3388 262
7221 6594 257
9946 1267 262
1292 624 182
2598 6053 238
6834 1655 262
5397 8088 262
4421 7596 262
8564 6076 262
5047 9509 262
777 1574 182
2766 6785 262
9166 3196 262
8359 3510 262
7925 2444 262
2584 4028 238
45 7643 262
1466 6934 262
6833 8348 257
6122 3886 236
4438 9182 262
623 2304 183
6543 4681 262
1663 9053 262
6880 2855 262
561 6687 262
7641 5622 262
3486 9744 262
2162 1913 175
8267 4261 262
9802 7418 260
851 1566 182
6249 7736 257
3216 5520 238
7021 1643 262
