1 10 20
100 200 125
201 210 89
900 1000 174
110 1111 179
1111 110 179
43243 23434 324
12344 66565 340
34435 45566 324
3234 494949 449
4232 458458 449
5454 23 238
1 100 119
100 300 128
600 400 142
1200 600 182
601 1201 182
4324 567 238
1205 5063 238
6079 493 238
20977 5395 279
9999 5555 262
999999 999998 259
54542 324960 443
1 1001 179
123 1123 179
245 1245 182
367 1367 182
489 1489 182
611 1611 182
733 1733 182
855 1855 182
977 1977 182
1099 2099 182
1221 2221 180
1343 2343 183
1465 2465 209
1587 2587 209
1709 2709 209
1831 2831 209
1953 2953 217
2075 3075 217
2197 3197 217
2319 3319 217
2441 3441 217
2563 3563 217
2685 3685 217
2807 3807 238
2929 3929 238
3051 4051 238
3173 4173 238
3295 4295 238
3417 4417 238
3539 4539 238
3661 4661 238
3783 4783 215
3905 4905 215
4027 5027 215
4149 5149 215
4271 5271 215
4393 5393 210
4515 5515 210
4637 5637 236
4759 5759 236
4881 5881 236
5003 6003 236
5125 6125 236
5247 6247 262
5369 6369 262
5491 6491 262
5613 6613 262
5735 6735 262
5857 6857 262
5979 6979 262
6101 7101 262
6223 7223 257
6345 7345 257
6467 7467 257
6589 7589 257
6711 7711 257
6833 7833 257
6955 7955 239
7077 8077 252
7199 8199 252
7321 8321 252
7443 8443 252
7565 8565 252
7687 8687 252
7809 8809 252
7931 8931 252
8053 9053 247
8175 9175 247
8297 9297 260
8419 9419 260
8541 9541 260
8663 9663 260
8785 9785 260
8907 9907 260
9029 10029 260
9151 10151 260
9273 10273 242
9395 10395 242
9517 10517 255
9639 10639 255
9761 10761 255
9883 10883 255
10005 11005 268
10127 11127 268
10249 11249 268
10371 11371 268
10493 11493 268
10615 11615 268
10737 11737 268
10859 11859 268
10981 11981 250
11103 12103 250
11225 12225 250
11347 12347 263
11469 12469 263
11591 12591 263
11713 12713 263
11835 12835 263
11957 12957 263
12079 13079 263
12201 13201 263
12323 13323 276
12445 13445 276
12567 13567 276
12689 13689 276
12811 13811 276
12933 13933 276
13055 14055 276
13177 14177 276
13299 14299 258
13421 14421 258
13543 14543 258
13665 14665 258
13787 14787 271
13909 14909 271
14031 15031 271
14153 15153 271
14275 15275 271
14397 15397 271
14519 15519 271
14641 15641 271
14763 15763 271
14885 15885 271
15007 16007 271
15129 16129 253
15251 16251 253
15373 16373 253
15495 16495 266
15617 16617 266
15739 16739 266
15861 16861 266
15983 16983 266
16105 17105 266
16227 17227 266
16349 17349 266
16471 17471 266
16593 17593 266
16715 17715 279
16837 17837 279
16959 17959 279
17081 18081 279
17203 18203 279
17325 18325 279
17447 18447 279
17569 18569 279
17691 18691 261
17813 18813 261
17935 18935 261
18057 19057 261
18179 19179 261
18301 19301 261
18423 19423 261
18545 19545 261
18667 19667 274
18789 19789 274
18911 19911 274
19033 20033 274
19155 20155 274
19277 20277 274
19399 20399 274
19521 20521 274
19643 20643 274
19765 20765 274
19887 20887 256
20009 21009 256
20131 21131 256
20253 21253 256
20375 21375 256
20497 21497 256
20619 21619 256
20741 21741 256
20863 21863 256
20985 21985 269
21107 22107 269
21229 22229 269
21351 22351 269
21473 22473 269
21595 22595 269
21717 22717 269
21839 22839 269
21961 22961 269
22083 23083 269
22205 23205 269
22327 23327 269
22449 23449 269
22571 23571 282
22693 23693 282
22815 23815 282
22937 23937 282
23059 24059 282
23181 24181 282
23303 24303 282
23425 24425 282
23547 24547 251
23669 24669 251
23791 24791 264
23913 24913 264
24035 25035 264
24157 25157 264
24279 25279 264
24401 25401 264
24523 25523 264
24645 25645 264
24767 25767 264
24889 25889 264
25011 26011 264
25133 26133 264
25255 26255 246
25377 26377 246
25499 26499 277
25621 26621 277
25743 26743 308
25865 26865 308
25987 26987 308
26109 27109 308
26231 27231 308
26353 27353 308
26475 27475 308
26597 27597 308
26719 27719 259
26841 27841 259
26963 27963 259
27085 28085 259
27207 28207 259
27329 28329 259
27451 28451 259
27573 28573 259
27695 28695 259
27817 28817 259
27939 28939 259
28061 29061 259
28183 29183 259
28305 29305 272
28427 29427 272
28549 29549 272
28671 29671 272
28793 29793 272
28915 29915 272
29037 30037 272
29159 30159 272
29281 30281 272
29403 30403 272
29525 30525 272
29647 30647 272
29769 30769 272
29891 30891 272
30013 31013 272
30135 31135 254
30257 31257 254
30379 31379 254
30501 31501 285
30623 31623 285
30745 31745 285
30867 31867 285
30989 31989 285
31111 32111 285
31233 32233 285
31355 32355 285
31477 32477 285
31599 32599 285
31721 32721 267
31843 32843 267
31965 32965 267
32087 33087 267
32209 33209 267
32331 33331 267
32453 33453 267
32575 33575 267
32697 33697 267
32819 33819 267
32941 33941 267
33063 34063 267
33185 34185 267
33307 34307 311
33429 34429 311
33551 34551 311
33673 34673 311
33795 34795 311
33917 34917 311
34039 35039 311
34161 35161 311
34283 35283 280
34405 35405 280
34527 35527 311
34649 35649 311
34771 35771 324
34893 35893 324
35015 36015 324
35137 36137 324
35259 36259 324
35381 36381 324
35503 36503 324
35625 36625 324
35747 36747 249
35869 36869 249
35991 36991 249
36113 37113 262
36235 37235 262
36357 37357 262
36479 37479 262
36601 37601 306
36723 37723 306
36845 37845 306
36967 37967 306
37089 38089 306
37211 38211 306
37333 38333 306
37455 38455 306
37577 38577 262
37699 38699 262
37821 38821 244
37943 38943 244
38065 39065 275
38187 39187 275
38309 39309 275
38431 39431 275
38553 39553 275
38675 39675 275
38797 39797 275
38919 39919 275
39041 40041 306
39163 40163 306
39285 40285 306
39407 40407 306
39529 40529 306
39651 40651 306
39773 40773 306
39895 40895 306
40017 41017 288
40139 41139 288
40261 41261 288
40383 41383 288
40505 41505 288
40627 41627 288
40749 41749 288
40871 41871 288
40993 41993 257
41115 42115 257
41237 42237 257
41359 42359 288
41481 42481 288
41603 42603 288
41725 42725 288
41847 42847 288
41969 42969 288
42091 43091 288
42213 43213 288
42335 43335 257
42457 43457 257
42579 43579 257
42701 43701 257
42823 43823 257
42945 43945 270
43067 44067 270
43189 44189 270
43311 44311 270
43433 44433 270
43555 44555 270
43677 44677 270
43799 44799 270
43921 44921 270
44043 45043 270
44165 45165 314
44287 45287 314
44409 45409 314
44531 45531 314
44653 45653 314
44775 45775 314
44897 45897 314
45019 46019 314
45141 46141 252
45263 46263 252
45385 46385 252
45507 46507 283
45629 46629 283
45751 46751 283
45873 46873 283
45995 46995 283
46117 47117 283
46239 47239 283
46361 47361 314
46483 47483 314
46605 47605 314
46727 47727 314
46849 47849 314
46971 47971 314
47093 48093 314
47215 48215 314
47337 48337 283
47459 48459 283
47581 48581 252
47703 48703 265
47825 48825 265
47947 48947 296
48069 49069 296
48191 49191 296
48313 49313 296
48435 49435 296
48557 49557 296
48679 49679 296
48801 49801 296
48923 49923 296
49045 50045 296
49167 50167 296
49289 50289 296
49411 50411 296
49533 50533 296
49655 50655 265
49777 50777 265
49899 50899 278
50021 51021 278
50143 51143 278
50265 51265 278
50387 51387 309
50509 51509 309
50631 51631 309
50753 51753 309
50875 51875 309
50997 51997 309
51119 52119 309
51241 52241 309
51363 52363 278
51485 52485 278
51607 52607 340
51729 52729 340
51851 52851 340
51973 52973 340
52095 53095 340
52217 53217 340
52339 53339 340
52461 53461 340
52583 53583 322
52705 53705 322
52827 53827 322
52949 53949 322
53071 54071 322
53193 54193 322
53315 54315 322
53437 54437 322
53559 54559 260
53681 54681 260
53803 54803 260
53925 54925 260
54047 55047 260
54169 55169 260
54291 55291 260
54413 55413 260
54535 55535 260
54657 55657 260
54779 55779 260
54901 55901 260
55023 56023 260
55145 56145 322
55267 56267 322
55389 56389 322
55511 56511 322
55633 56633 322
55755 56755 322
55877 56877 322
55999 56999 322
56121 57121 304
56243 57243 304
56365 57365 304
56487 57487 304
56609 57609 304
56731 57731 304
56853 57853 304
56975 57975 304
57097 58097 304
57219 58219 273
57341 58341 273
57463 58463 273
57585 58585 273
57707 58707 273
57829 58829 273
57951 58951 273
58073 59073 273
58195 59195 273
58317 59317 273
58439 59439 273
58561 59561 273
58683 59683 273
58805 59805 273
58927 59927 304
59049 60049 304
59171 60171 317
59293 60293 317
59415 60415 317
59537 60537 317
59659 60659 317
59781 60781 317
59903 60903 317
60025 61025 335
60147 61147 335
60269 61269 335
60391 61391 335
60513 61513 335
60635 61635 335
60757 61757 335
60879 61879 335
61001 62001 317
61123 62123 317
61245 62245 317
61367 62367 317
61489 62489 317
61611 62611 317
61733 62733 317
61855 62855 317
61977 62977 317
62099 63099 286
62221 63221 317
62343 63343 317
62465 63465 330
62587 63587 330
62709 63709 330
62831 63831 330
62953 63953 330
63075 64075 330
63197 64197 330
63319 64319 330
63441 64441 299
63563 64563 299
63685 64685 299
63807 64807 299
63929 64929 299
64051 65051 299
64173 65173 299
64295 65295 268
64417 65417 268
64539 65539 268
64661 65661 268
64783 65783 268
64905 65905 268
65027 66027 268
65149 66149 268
65271 66271 268
65393 66393 268
65515 66515 268
65637 66637 268
65759 66759 268
65881 66881 268
66003 67003 268
66125 67125 268
66247 67247 268
66369 67369 268
66491 67491 268
66613 67613 281
66735 67735 312
66857 67857 312
66979 67979 312
67101 68101 312
67223 68223 312
67345 68345 312
67467 68467 312
67589 68589 312
67711 68711 312
67833 68833 312
67955 68955 312
68077 69077 312
68199 69199 312
68321 69321 312
68443 69443 312
68565 69565 299
68687 69687 299
68809 69809 299
68931 69931 299
69053 70053 299
69175 70175 299
69297 70297 299
69419 70419 312
69541 70541 312
69663 70663 312
69785 70785 312
69907 70907 312
70029 71029 312
70151 71151 312
70273 71273 312
70395 71395 325
70517 71517 325
70639 71639 325
70761 71761 325
70883 71883 325
71005 72005 325
71127 72127 325
71249 72249 325
71371 72371 263
71493 72493 263
71615 72615 263
71737 72737 263
71859 72859 263
71981 72981 263
72103 73103 294
72225 73225 294
72347 73347 294
72469 73469 294
72591 73591 294
72713 73713 294
72835 73835 294
72957 73957 294
73079 74079 294
73201 74201 294
73323 74323 294
73445 74445 294
73567 74567 294
73689 74689 294
73811 74811 325
73933 74933 325
74055 75055 325
74177 75177 325
74299 75299 325
74421 75421 325
74543 75543 325
74665 75665 325
74787 75787 325
74909 75909 307
75031 76031 294
75153 76153 307
75275 76275 307
75397 76397 307
75519 76519 307
75641 76641 307
75763 76763 307
75885 76885 307
76007 77007 307
76129 77129 351
76251 77251 351
76373 77373 351
76495 77495 351
76617 77617 351
76739 77739 351
76861 77861 351
76983 77983 351
77105 78105 276
77227 78227 276
77349 78349 276
77471 78471 307
77593 78593 307
77715 78715 307
77837 78837 338
77959 78959 338
78081 79081 338
78203 79203 338
78325 79325 338
78447 79447 338
78569 79569 338
78691 79691 338
78813 79813 307
78935 79935 307
79057 80057 307
79179 80179 307
79301 80301 320
79423 80423 320
79545 80545 320
79667 80667 320
79789 80789 320
79911 80911 320
80033 81033 320
80155 81155 320
80277 81277 320
80399 81399 320
80521 81521 320
80643 81643 320
80765 81765 320
80887 81887 320
81009 82009 320
81131 82131 320
81253 82253 289
81375 82375 289
81497 82497 307
81619 82619 307
81741 82741 320
81863 82863 320
81985 82985 320
82107 83107 320
82229 83229 320
82351 83351 320
82473 83473 320
82595 83595 320
82717 83717 289
82839 83839 289
82961 83961 289
83083 84083 289
83205 84205 320
83327 84327 320
83449 84449 320
83571 84571 320
83693 84693 320
83815 84815 320
83937 84937 320
84059 85059 320
84181 85181 302
84303 85303 302
84425 85425 289
84547 85547 289
84669 85669 289
84791 85791 302
84913 85913 302
85035 86035 302
85157 86157 302
85279 86279 302
85401 86401 302
85523 86523 302
85645 86645 302
85767 86767 302
85889 86889 302
86011 87011 302
86133 87133 333
86255 87255 333
